[gd_scene load_steps=5 format=3 uid="uid://cjski7xena024"]

[sub_resource type="CompressedTexture2D" id="CompressedTexture2D_rnh6t"]
load_path = "res://.godot/imported/glass.png-f51811327bf58a35d7a7257748338da3.s3tc.ctex"

[sub_resource type="StandardMaterial3D" id="StandardMaterial3D_twx83"]
transparency = 4
cull_mode = 2
albedo_texture = SubResource("CompressedTexture2D_rnh6t")
uv1_scale = Vector3(4, 3, 1)
texture_filter = 0

[sub_resource type="QuadMesh" id="QuadMesh_jma5i"]
material = SubResource("StandardMaterial3D_twx83")
size = Vector2(4.3, 2.75)

[sub_resource type="BoxShape3D" id="BoxShape3D_q6acw"]
size = Vector3(4.18953, 2.64336, 0.0773848)

[node name="WindowLarge" type="MeshInstance3D"]
mesh = SubResource("QuadMesh_jma5i")

[node name="StaticBody3D" type="StaticBody3D" parent="."]

[node name="CollisionShape3D" type="CollisionShape3D" parent="StaticBody3D"]
shape = SubResource("BoxShape3D_q6acw")
