[gd_scene load_steps=5 format=3 uid="uid://d2bmmgq600243"]

[ext_resource type="Texture2D" uid="uid://deail3okvtv5" path="res://proprietary/glass.png" id="1_4rs5v"]

[sub_resource type="StandardMaterial3D" id="StandardMaterial3D_mvd8v"]
transparency = 4
cull_mode = 2
albedo_texture = ExtResource("1_4rs5v")
uv1_scale = Vector3(1, 3, 1)
texture_filter = 0

[sub_resource type="QuadMesh" id="QuadMesh_xcjs7"]
material = SubResource("StandardMaterial3D_mvd8v")
size = Vector2(0.9, 2.75)

[sub_resource type="BoxShape3D" id="BoxShape3D_r2sm6"]
size = Vector3(0.871469, 2.64336, 0.0773848)

[node name="WindowVertical" type="MeshInstance3D"]
mesh = SubResource("QuadMesh_xcjs7")

[node name="StaticBody3D" type="StaticBody3D" parent="."]

[node name="CollisionShape3D" type="CollisionShape3D" parent="StaticBody3D"]
shape = SubResource("BoxShape3D_r2sm6")
