<?xml version="1.0" encoding="utf-8"?>
<COLLADA xmlns="http://www.collada.org/2005/11/COLLADASchema" version="1.4.1" xmlns:xsi="http://www.w3.org/2001/XMLSchema-instance">
  <asset>
    <contributor>
      <author>Blender User</author>
      <authoring_tool>Blender 3.6.2 commit date:2023-08-16, commit time:16:43, hash:e53e55951e7a</authoring_tool>
    </contributor>
    <created>2023-09-21T23:02:54</created>
    <modified>2023-09-21T23:02:54</modified>
    <unit name="meter" meter="1"/>
    <up_axis>Z_UP</up_axis>
  </asset>
  <library_effects>
    <effect id="Material_001-effect">
      <profile_COMMON>
        <technique sid="common">
          <lambert>
            <emission>
              <color sid="emission">0 0 0 1</color>
            </emission>
            <diffuse>
              <color sid="diffuse">0.09719735 0.02991694 0.02481832 1</color>
            </diffuse>
            <reflectivity>
              <float sid="specular">0.1221374</float>
            </reflectivity>
            <index_of_refraction>
              <float sid="ior">1.45</float>
            </index_of_refraction>
          </lambert>
        </technique>
      </profile_COMMON>
    </effect>
  </library_effects>
  <library_images/>
  <library_materials>
    <material id="Material_001-material" name="Material.001">
      <instance_effect url="#Material_001-effect"/>
    </material>
  </library_materials>
  <library_geometries>
    <geometry id="Cube-mesh" name="Cube">
      <mesh>
        <source id="Cube-mesh-positions">
          <float_array id="Cube-mesh-positions-array" count="0"/>
          <technique_common>
            <accessor source="#Cube-mesh-positions-array" count="0" stride="3">
              <param name="X" type="float"/>
              <param name="Y" type="float"/>
              <param name="Z" type="float"/>
            </accessor>
          </technique_common>
        </source>
        <source id="Cube-mesh-normals">
          <float_array id="Cube-mesh-normals-array" count="0"/>
          <technique_common>
            <accessor source="#Cube-mesh-normals-array" count="0" stride="3">
              <param name="X" type="float"/>
              <param name="Y" type="float"/>
              <param name="Z" type="float"/>
            </accessor>
          </technique_common>
        </source>
        <source id="Cube-mesh-map-0">
          <float_array id="Cube-mesh-map-0-array" count="0"/>
          <technique_common>
            <accessor source="#Cube-mesh-map-0-array" count="0" stride="2">
              <param name="S" type="float"/>
              <param name="T" type="float"/>
            </accessor>
          </technique_common>
        </source>
        <vertices id="Cube-mesh-vertices">
          <input semantic="POSITION" source="#Cube-mesh-positions"/>
        </vertices>
      </mesh>
    </geometry>
    <geometry id="Plane-mesh" name="Plane">
      <mesh>
        <source id="Plane-mesh-positions">
          <float_array id="Plane-mesh-positions-array" count="12">-50 -50 0 50 -50 0 -50 50 0 50 50 0</float_array>
          <technique_common>
            <accessor source="#Plane-mesh-positions-array" count="4" stride="3">
              <param name="X" type="float"/>
              <param name="Y" type="float"/>
              <param name="Z" type="float"/>
            </accessor>
          </technique_common>
        </source>
        <source id="Plane-mesh-normals">
          <float_array id="Plane-mesh-normals-array" count="3">0 0 1</float_array>
          <technique_common>
            <accessor source="#Plane-mesh-normals-array" count="1" stride="3">
              <param name="X" type="float"/>
              <param name="Y" type="float"/>
              <param name="Z" type="float"/>
            </accessor>
          </technique_common>
        </source>
        <source id="Plane-mesh-map-0">
          <float_array id="Plane-mesh-map-0-array" count="12">1 0 0 1 0 0 1 0 1 1 0 1</float_array>
          <technique_common>
            <accessor source="#Plane-mesh-map-0-array" count="6" stride="2">
              <param name="S" type="float"/>
              <param name="T" type="float"/>
            </accessor>
          </technique_common>
        </source>
        <vertices id="Plane-mesh-vertices">
          <input semantic="POSITION" source="#Plane-mesh-positions"/>
        </vertices>
        <triangles material="Material_001-material" count="2">
          <input semantic="VERTEX" source="#Plane-mesh-vertices" offset="0"/>
          <input semantic="NORMAL" source="#Plane-mesh-normals" offset="1"/>
          <input semantic="TEXCOORD" source="#Plane-mesh-map-0" offset="2" set="0"/>
          <p>1 0 0 2 0 1 0 0 2 1 0 3 3 0 4 2 0 5</p>
        </triangles>
      </mesh>
    </geometry>
  </library_geometries>
  <library_visual_scenes>
    <visual_scene id="Scene" name="Scene">
      <node id="Marker_100" name="Marker.100" type="NODE">
        <matrix sid="transform">7.54979e-8 -8.74228e-8 1 46.73812 0 -1 -8.74228e-8 -19.16488 1 6.60024e-15 -7.54979e-8 0 0 0 0 1</matrix>
        <instance_geometry url="#Cube-mesh" name="Marker.100"/>
      </node>
      <node id="Marker_099" name="Marker.099" type="NODE">
        <matrix sid="transform">7.54979e-8 -8.74228e-8 1 -22.4161 0 -1 -8.74228e-8 39.81949 1 6.60024e-15 -7.54979e-8 0 0 0 0 1</matrix>
        <instance_geometry url="#Cube-mesh" name="Marker.099"/>
      </node>
      <node id="Marker_098" name="Marker.098" type="NODE">
        <matrix sid="transform">7.54979e-8 -8.74228e-8 1 -37.83899 0 -1 -8.74228e-8 13.25699 1 6.60024e-15 -7.54979e-8 0 0 0 0 1</matrix>
        <instance_geometry url="#Cube-mesh" name="Marker.098"/>
      </node>
      <node id="Marker_097" name="Marker.097" type="NODE">
        <matrix sid="transform">7.54979e-8 -8.74228e-8 1 35.79285 0 -1 -8.74228e-8 10.52261 1 6.60024e-15 -7.54979e-8 0 0 0 0 1</matrix>
        <instance_geometry url="#Cube-mesh" name="Marker.097"/>
      </node>
      <node id="Marker_096" name="Marker.096" type="NODE">
        <matrix sid="transform">7.54979e-8 -8.74228e-8 1 -19.43103 0 -1 -8.74228e-8 -41.4305 1 6.60024e-15 -7.54979e-8 0 0 0 0 1</matrix>
        <instance_geometry url="#Cube-mesh" name="Marker.096"/>
      </node>
      <node id="Marker_095" name="Marker.095" type="NODE">
        <matrix sid="transform">7.54979e-8 -8.74228e-8 1 -2.515602 0 -1 -8.74228e-8 45.28824 1 6.60024e-15 -7.54979e-8 0 0 0 0 1</matrix>
        <instance_geometry url="#Cube-mesh" name="Marker.095"/>
      </node>
      <node id="Marker_094" name="Marker.094" type="NODE">
        <matrix sid="transform">7.54979e-8 -8.74228e-8 1 -4.008144 0 -1 -8.74228e-8 7.788241 1 6.60024e-15 -7.54979e-8 0 0 0 0 1</matrix>
        <instance_geometry url="#Cube-mesh" name="Marker.094"/>
      </node>
      <node id="Marker_093" name="Marker.093" type="NODE">
        <matrix sid="transform">7.54979e-8 -8.74228e-8 1 29.8227 0 -1 -8.74228e-8 19.89762 1 6.60024e-15 -7.54979e-8 0 0 0 0 1</matrix>
        <instance_geometry url="#Cube-mesh" name="Marker.093"/>
      </node>
      <node id="Marker_092" name="Marker.092" type="NODE">
        <matrix sid="transform">7.54979e-8 -8.74228e-8 1 15.89236 0 -1 -8.74228e-8 6.225743 1 6.60024e-15 -7.54979e-8 0 0 0 0 1</matrix>
        <instance_geometry url="#Cube-mesh" name="Marker.092"/>
      </node>
      <node id="Marker_091" name="Marker.091" type="NODE">
        <matrix sid="transform">7.54979e-8 -8.74228e-8 1 44.74808 0 -1 -8.74228e-8 -3.539885 1 6.60024e-15 -7.54979e-8 0 0 0 0 1</matrix>
        <instance_geometry url="#Cube-mesh" name="Marker.091"/>
      </node>
      <node id="Marker_090" name="Marker.090" type="NODE">
        <matrix sid="transform">7.54979e-8 -8.74228e-8 1 -4.505655 0 -1 -8.74228e-8 32.78824 1 6.60024e-15 -7.54979e-8 0 0 0 0 1</matrix>
        <instance_geometry url="#Cube-mesh" name="Marker.090"/>
      </node>
      <node id="Marker_089" name="Marker.089" type="NODE">
        <matrix sid="transform">7.54979e-8 -8.74228e-8 1 34.79783 0 -1 -8.74228e-8 -14.47739 1 6.60024e-15 -7.54979e-8 0 0 0 0 1</matrix>
        <instance_geometry url="#Cube-mesh" name="Marker.089"/>
      </node>
      <node id="Marker_088" name="Marker.088" type="NODE">
        <matrix sid="transform">7.54979e-8 -8.74228e-8 1 -5.500681 0 -1 -8.74228e-8 -35.96176 1 6.60024e-15 -7.54979e-8 0 0 0 0 1</matrix>
        <instance_geometry url="#Cube-mesh" name="Marker.088"/>
      </node>
      <node id="Marker_087" name="Marker.087" type="NODE">
        <matrix sid="transform">7.54979e-8 -8.74228e-8 1 -35.35143 0 -1 -8.74228e-8 -42.99301 1 6.60024e-15 -7.54979e-8 0 0 0 0 1</matrix>
        <instance_geometry url="#Cube-mesh" name="Marker.087"/>
      </node>
      <node id="Marker_086" name="Marker.086" type="NODE">
        <matrix sid="transform">7.54979e-8 -8.74228e-8 1 45.7431 0 -1 -8.74228e-8 21.46011 1 6.60024e-15 -7.54979e-8 0 0 0 0 1</matrix>
        <instance_geometry url="#Cube-mesh" name="Marker.086"/>
      </node>
      <node id="Marker_085" name="Marker.085" type="NODE">
        <matrix sid="transform">7.54979e-8 -8.74228e-8 1 -12.46586 0 -1 -8.74228e-8 36.69449 1 6.60024e-15 -7.54979e-8 0 0 0 0 1</matrix>
        <instance_geometry url="#Cube-mesh" name="Marker.085"/>
      </node>
      <node id="Marker_084" name="Marker.084" type="NODE">
        <matrix sid="transform">7.54979e-8 -8.74228e-8 1 4.947079 0 -1 -8.74228e-8 -1.586758 1 6.60024e-15 -7.54979e-8 0 0 0 0 1</matrix>
        <instance_geometry url="#Cube-mesh" name="Marker.084"/>
      </node>
      <node id="Marker_083" name="Marker.083" type="NODE">
        <matrix sid="transform">7.54979e-8 -8.74228e-8 1 -7.988239 0 -1 -8.74228e-8 1.538242 1 6.60024e-15 -7.54979e-8 0 0 0 0 1</matrix>
        <instance_geometry url="#Cube-mesh" name="Marker.083"/>
      </node>
      <node id="Marker_082" name="Marker.082" type="NODE">
        <matrix sid="transform">7.54979e-8 -8.74228e-8 1 12.40977 0 -1 -8.74228e-8 -40.64925 1 6.60024e-15 -7.54979e-8 0 0 0 0 1</matrix>
        <instance_geometry url="#Cube-mesh" name="Marker.082"/>
      </node>
      <node id="Marker_081" name="Marker.081" type="NODE">
        <matrix sid="transform">7.54979e-8 -8.74228e-8 1 48.72817 0 -1 -8.74228e-8 -6.66488 1 6.60024e-15 -7.54979e-8 0 0 0 0 1</matrix>
        <instance_geometry url="#Cube-mesh" name="Marker.081"/>
      </node>
      <node id="Marker_080" name="Marker.080" type="NODE">
        <matrix sid="transform">7.54979e-8 -8.74228e-8 1 25.34509 0 -1 -8.74228e-8 38.64762 1 6.60024e-15 -7.54979e-8 0 0 0 0 1</matrix>
        <instance_geometry url="#Cube-mesh" name="Marker.080"/>
      </node>
      <node id="Marker_079" name="Marker.079" type="NODE">
        <matrix sid="transform">7.54979e-8 -8.74228e-8 1 31.81275 0 -1 -8.74228e-8 4.272614 1 6.60024e-15 -7.54979e-8 0 0 0 0 1</matrix>
        <instance_geometry url="#Cube-mesh" name="Marker.079"/>
      </node>
      <node id="Marker_078" name="Marker.078" type="NODE">
        <matrix sid="transform">7.54979e-8 -8.74228e-8 1 -21.91859 0 -1 -8.74228e-8 14.81949 1 6.60024e-15 -7.54979e-8 0 0 0 0 1</matrix>
        <instance_geometry url="#Cube-mesh" name="Marker.078"/>
      </node>
      <node id="Marker_077" name="Marker.077" type="NODE">
        <matrix sid="transform">7.54979e-8 -8.74228e-8 1 -28.88377 0 -1 -8.74228e-8 -14.86801 1 6.60024e-15 -7.54979e-8 0 0 0 0 1</matrix>
        <instance_geometry url="#Cube-mesh" name="Marker.077"/>
      </node>
      <node id="Marker_076" name="Marker.076" type="NODE">
        <matrix sid="transform">7.54979e-8 -8.74228e-8 1 -7.490731 0 -1 -8.74228e-8 -48.46176 1 6.60024e-15 -7.54979e-8 0 0 0 0 1</matrix>
        <instance_geometry url="#Cube-mesh" name="Marker.076"/>
      </node>
      <node id="Marker_075" name="Marker.075" type="NODE">
        <matrix sid="transform">7.54979e-8 -8.74228e-8 1 -10.97332 0 -1 -8.74228e-8 -0.8055086 1 6.60024e-15 -7.54979e-8 0 0 0 0 1</matrix>
        <instance_geometry url="#Cube-mesh" name="Marker.075"/>
      </node>
      <node id="Marker_074" name="Marker.074" type="NODE">
        <matrix sid="transform">7.54979e-8 -8.74228e-8 1 17.3849 0 -1 -8.74228e-8 43.72574 1 6.60024e-15 -7.54979e-8 0 0 0 0 1</matrix>
        <instance_geometry url="#Cube-mesh" name="Marker.074"/>
      </node>
      <node id="Marker_073" name="Marker.073" type="NODE">
        <matrix sid="transform">7.54979e-8 -8.74228e-8 1 41.763 0 -1 -8.74228e-8 15.21012 1 6.60024e-15 -7.54979e-8 0 0 0 0 1</matrix>
        <instance_geometry url="#Cube-mesh" name="Marker.073"/>
      </node>
      <node id="Marker_072" name="Marker.072" type="NODE">
        <matrix sid="transform">7.54979e-8 -8.74228e-8 1 -2.018093 0 -1 -8.74228e-8 20.28824 1 6.60024e-15 -7.54979e-8 0 0 0 0 1</matrix>
        <instance_geometry url="#Cube-mesh" name="Marker.072"/>
      </node>
      <node id="Marker_071" name="Marker.071" type="NODE">
        <matrix sid="transform">7.54979e-8 -8.74228e-8 1 -31.37132 0 -1 -8.74228e-8 -46.11801 1 6.60024e-15 -7.54979e-8 0 0 0 0 1</matrix>
        <instance_geometry url="#Cube-mesh" name="Marker.071"/>
      </node>
      <node id="Marker_070" name="Marker.070" type="NODE">
        <matrix sid="transform">7.54979e-8 -8.74228e-8 1 -14.4559 0 -1 -8.74228e-8 42.94449 1 6.60024e-15 -7.54979e-8 0 0 0 0 1</matrix>
        <instance_geometry url="#Cube-mesh" name="Marker.070"/>
      </node>
      <node id="Marker_069" name="Marker.069" type="NODE">
        <matrix sid="transform">7.54979e-8 -8.74228e-8 1 -29.38128 0 -1 -8.74228e-8 -33.61801 1 6.60024e-15 -7.54979e-8 0 0 0 0 1</matrix>
        <instance_geometry url="#Cube-mesh" name="Marker.069"/>
      </node>
      <node id="Marker_068" name="Marker.068" type="NODE">
        <matrix sid="transform">7.54979e-8 -8.74228e-8 1 9.424694 0 -1 -8.74228e-8 40.60074 1 6.60024e-15 -7.54979e-8 0 0 0 0 1</matrix>
        <instance_geometry url="#Cube-mesh" name="Marker.068"/>
      </node>
      <node id="Marker_067" name="Marker.067" type="NODE">
        <matrix sid="transform">7.54979e-8 -8.74228e-8 1 -39.33153 0 -1 -8.74228e-8 -49.24301 1 6.60024e-15 -7.54979e-8 0 0 0 0 1</matrix>
        <instance_geometry url="#Cube-mesh" name="Marker.067"/>
      </node>
      <node id="Marker_066" name="Marker.066" type="NODE">
        <matrix sid="transform">7.54979e-8 -8.74228e-8 1 -16.44595 0 -1 -8.74228e-8 30.44449 1 6.60024e-15 -7.54979e-8 0 0 0 0 1</matrix>
        <instance_geometry url="#Cube-mesh" name="Marker.066"/>
      </node>
      <node id="Marker_065" name="Marker.065" type="NODE">
        <matrix sid="transform">7.54979e-8 -8.74228e-8 1 47.23563 0 -1 -8.74228e-8 30.83511 1 6.60024e-15 -7.54979e-8 0 0 0 0 1</matrix>
        <instance_geometry url="#Cube-mesh" name="Marker.065"/>
      </node>
      <node id="Marker_064" name="Marker.064" type="NODE">
        <matrix sid="transform">7.54979e-8 -8.74228e-8 1 -42.81411 0 -1 -8.74228e-8 39.42886 1 6.60024e-15 -7.54979e-8 0 0 0 0 1</matrix>
        <instance_geometry url="#Cube-mesh" name="Marker.064"/>
      </node>
      <node id="Marker_063" name="Marker.063" type="NODE">
        <matrix sid="transform">7.54979e-8 -8.74228e-8 1 28.33017 0 -1 -8.74228e-8 -42.60238 1 6.60024e-15 -7.54979e-8 0 0 0 0 1</matrix>
        <instance_geometry url="#Cube-mesh" name="Marker.063"/>
      </node>
      <node id="Marker_062" name="Marker.062" type="NODE">
        <matrix sid="transform">7.54979e-8 -8.74228e-8 1 -8.983263 0 -1 -8.74228e-8 -23.46175 1 6.60024e-15 -7.54979e-8 0 0 0 0 1</matrix>
        <instance_geometry url="#Cube-mesh" name="Marker.062"/>
      </node>
      <node id="Marker_061" name="Marker.061" type="NODE">
        <matrix sid="transform">7.54979e-8 -8.74228e-8 1 24.84758 0 -1 -8.74228e-8 -11.35238 1 6.60024e-15 -7.54979e-8 0 0 0 0 1</matrix>
        <instance_geometry url="#Cube-mesh" name="Marker.061"/>
      </node>
      <node id="Marker_060" name="Marker.060" type="NODE">
        <matrix sid="transform">7.54979e-8 -8.74228e-8 1 -44.80416 0 -1 -8.74228e-8 26.92886 1 6.60024e-15 -7.54979e-8 0 0 0 0 1</matrix>
        <instance_geometry url="#Cube-mesh" name="Marker.060"/>
      </node>
      <node id="Marker_059" name="Marker.059" type="NODE">
        <matrix sid="transform">7.54979e-8 -8.74228e-8 1 -44.30665 0 -1 -8.74228e-8 1.928869 1 6.60024e-15 -7.54979e-8 0 0 0 0 1</matrix>
        <instance_geometry url="#Cube-mesh" name="Marker.059"/>
      </node>
      <node id="Marker_058" name="Marker.058" type="NODE">
        <matrix sid="transform">7.54979e-8 -8.74228e-8 1 7.434645 0 -1 -8.74228e-8 28.10074 1 6.60024e-15 -7.54979e-8 0 0 0 0 1</matrix>
        <instance_geometry url="#Cube-mesh" name="Marker.058"/>
      </node>
      <node id="Marker_057" name="Marker.057" type="NODE">
        <matrix sid="transform">7.54979e-8 -8.74228e-8 1 26.83763 0 -1 -8.74228e-8 -17.60238 1 6.60024e-15 -7.54979e-8 0 0 0 0 1</matrix>
        <instance_geometry url="#Cube-mesh" name="Marker.057"/>
      </node>
      <node id="Marker_056" name="Marker.056" type="NODE">
        <matrix sid="transform">7.54979e-8 -8.74228e-8 1 -26.3962 0 -1 -8.74228e-8 47.632 1 6.60024e-15 -7.54979e-8 0 0 0 0 1</matrix>
        <instance_geometry url="#Cube-mesh" name="Marker.056"/>
      </node>
      <node id="Marker_055" name="Marker.055" type="NODE">
        <matrix sid="transform">7.54979e-8 -8.74228e-8 1 -40.82407 0 -1 -8.74228e-8 -24.24301 1 6.60024e-15 -7.54979e-8 0 0 0 0 1</matrix>
        <instance_geometry url="#Cube-mesh" name="Marker.055"/>
      </node>
      <node id="Marker_054" name="Marker.054" type="NODE">
        <matrix sid="transform">7.54979e-8 -8.74228e-8 1 35.29534 0 -1 -8.74228e-8 35.52261 1 6.60024e-15 -7.54979e-8 0 0 0 0 1</matrix>
        <instance_geometry url="#Cube-mesh" name="Marker.054"/>
      </node>
      <node id="Marker_053" name="Marker.053" type="NODE">
        <matrix sid="transform">7.54979e-8 -8.74228e-8 1 29.32519 0 -1 -8.74228e-8 44.89761 1 6.60024e-15 -7.54979e-8 0 0 0 0 1</matrix>
        <instance_geometry url="#Cube-mesh" name="Marker.053"/>
      </node>
      <node id="Marker_052" name="Marker.052" type="NODE">
        <matrix sid="transform">7.54979e-8 -8.74228e-8 1 -41.81909 0 -1 -8.74228e-8 -35.57114 1 6.60024e-15 -7.54979e-8 0 0 0 0 1</matrix>
        <instance_geometry url="#Cube-mesh" name="Marker.052"/>
      </node>
      <node id="Marker_051" name="Marker.051" type="NODE">
        <matrix sid="transform">7.54979e-8 -8.74228e-8 1 -22.91362 0 -1 -8.74228e-8 -10.18051 1 6.60024e-15 -7.54979e-8 0 0 0 0 1</matrix>
        <instance_geometry url="#Cube-mesh" name="Marker.051"/>
      </node>
      <node id="Marker_050" name="Marker.050" type="NODE">
        <matrix sid="transform">7.54979e-8 -8.74228e-8 1 -11.96834 0 -1 -8.74228e-8 11.69449 1 6.60024e-15 -7.54979e-8 0 0 0 0 1</matrix>
        <instance_geometry url="#Cube-mesh" name="Marker.050"/>
      </node>
      <node id="Marker_049" name="Marker.049" type="NODE">
        <matrix sid="transform">7.54979e-8 -8.74228e-8 1 -32.86386 0 -1 -8.74228e-8 -21.11801 1 6.60024e-15 -7.54979e-8 0 0 0 0 1</matrix>
        <instance_geometry url="#Cube-mesh" name="Marker.049"/>
      </node>
      <node id="Marker_048" name="Marker.048" type="NODE">
        <matrix sid="transform">7.54979e-8 -8.74228e-8 1 32.31026 0 -1 -8.74228e-8 -45.72739 1 6.60024e-15 -7.54979e-8 0 0 0 0 1</matrix>
        <instance_geometry url="#Cube-mesh" name="Marker.048"/>
      </node>
      <node id="Marker_047" name="Marker.047" type="NODE">
        <matrix sid="transform">7.54979e-8 -8.74228e-8 1 -0.5255566 0 -1 -8.74228e-8 29.66324 1 6.60024e-15 -7.54979e-8 0 0 0 0 1</matrix>
        <instance_geometry url="#Cube-mesh" name="Marker.047"/>
      </node>
      <node id="Marker_046" name="Marker.046" type="NODE">
        <matrix sid="transform">7.54979e-8 -8.74228e-8 1 -13.95839 0 -1 -8.74228e-8 17.94449 1 6.60024e-15 -7.54979e-8 0 0 0 0 1</matrix>
        <instance_geometry url="#Cube-mesh" name="Marker.046"/>
      </node>
      <node id="Marker_045" name="Marker.045" type="NODE">
        <matrix sid="transform">7.54979e-8 -8.74228e-8 1 -11.47083 0 -1 -8.74228e-8 -38.30551 1 6.60024e-15 -7.54979e-8 0 0 0 0 1</matrix>
        <instance_geometry url="#Cube-mesh" name="Marker.045"/>
      </node>
      <node id="Marker_044" name="Marker.044" type="NODE">
        <matrix sid="transform">7.54979e-8 -8.74228e-8 1 -39.82904 0 -1 -8.74228e-8 0.7569923 1 6.60024e-15 -7.54979e-8 0 0 0 0 1</matrix>
        <instance_geometry url="#Cube-mesh" name="Marker.044"/>
      </node>
      <node id="Marker_043" name="Marker.043" type="NODE">
        <matrix sid="transform">7.54979e-8 -8.74228e-8 1 -27.88874 0 -1 -8.74228e-8 10.13199 1 6.60024e-15 -7.54979e-8 0 0 0 0 1</matrix>
        <instance_geometry url="#Cube-mesh" name="Marker.043"/>
      </node>
      <node id="Marker_042" name="Marker.042" type="NODE">
        <matrix sid="transform">7.54979e-8 -8.74228e-8 1 49.22569 0 -1 -8.74228e-8 43.33511 1 6.60024e-15 -7.54979e-8 0 0 0 0 1</matrix>
        <instance_geometry url="#Cube-mesh" name="Marker.042"/>
      </node>
      <node id="Marker_041" name="Marker.041" type="NODE">
        <matrix sid="transform">7.54979e-8 -8.74228e-8 1 -18.93352 0 -1 -8.74228e-8 -3.930509 1 6.60024e-15 -7.54979e-8 0 0 0 0 1</matrix>
        <instance_geometry url="#Cube-mesh" name="Marker.041"/>
      </node>
      <node id="Marker_040" name="Marker.040" type="NODE">
        <matrix sid="transform">7.54979e-8 -8.74228e-8 1 -30.3763 0 -1 -8.74228e-8 41.38199 1 6.60024e-15 -7.54979e-8 0 0 0 0 1</matrix>
        <instance_geometry url="#Cube-mesh" name="Marker.040"/>
      </node>
      <node id="Marker_039" name="Marker.039" type="NODE">
        <matrix sid="transform">7.54979e-8 -8.74228e-8 1 -27.39123 0 -1 -8.74228e-8 -39.868 1 6.60024e-15 -7.54979e-8 0 0 0 0 1</matrix>
        <instance_geometry url="#Cube-mesh" name="Marker.039"/>
      </node>
      <node id="Marker_038" name="Marker.038" type="NODE">
        <matrix sid="transform">7.54979e-8 -8.74228e-8 1 -21.42108 0 -1 -8.74228e-8 -35.18051 1 6.60024e-15 -7.54979e-8 0 0 0 0 1</matrix>
        <instance_geometry url="#Cube-mesh" name="Marker.038"/>
      </node>
      <node id="Marker_037" name="Marker.037" type="NODE">
        <matrix sid="transform">7.54979e-8 -8.74228e-8 1 -15.45093 0 -1 -8.74228e-8 -44.55551 1 6.60024e-15 -7.54979e-8 0 0 0 0 1</matrix>
        <instance_geometry url="#Cube-mesh" name="Marker.037"/>
      </node>
      <node id="Marker_036" name="Marker.036" type="NODE">
        <matrix sid="transform">7.54979e-8 -8.74228e-8 1 27.33514 0 -1 -8.74228e-8 32.39761 1 6.60024e-15 -7.54979e-8 0 0 0 0 1</matrix>
        <instance_geometry url="#Cube-mesh" name="Marker.036"/>
      </node>
      <node id="Marker_035" name="Marker.035" type="NODE">
        <matrix sid="transform">7.54979e-8 -8.74228e-8 1 -12.96337 0 -1 -8.74228e-8 -13.30551 1 6.60024e-15 -7.54979e-8 0 0 0 0 1</matrix>
        <instance_geometry url="#Cube-mesh" name="Marker.035"/>
      </node>
      <node id="Marker_034" name="Marker.034" type="NODE">
        <matrix sid="transform">7.54979e-8 -8.74228e-8 1 16.88738 0 -1 -8.74228e-8 -6.27426 1 6.60024e-15 -7.54979e-8 0 0 0 0 1</matrix>
        <instance_geometry url="#Cube-mesh" name="Marker.034"/>
      </node>
      <node id="Marker_033" name="Marker.033" type="NODE">
        <matrix sid="transform">7.54979e-8 -8.74228e-8 1 -30.87381 0 -1 -8.74228e-8 -8.618006 1 6.60024e-15 -7.54979e-8 0 0 0 0 1</matrix>
        <instance_geometry url="#Cube-mesh" name="Marker.033"/>
      </node>
      <node id="Marker_032" name="Marker.032" type="NODE">
        <matrix sid="transform">7.54979e-8 -8.74228e-8 1 -24.40615 0 -1 -8.74228e-8 27.31949 1 6.60024e-15 -7.54979e-8 0 0 0 0 1</matrix>
        <instance_geometry url="#Cube-mesh" name="Marker.032"/>
      </node>
      <node id="Marker_031" name="Marker.031" type="NODE">
        <matrix sid="transform">7.54979e-8 -8.74228e-8 1 18.87743 0 -1 -8.74228e-8 -12.52426 1 6.60024e-15 -7.54979e-8 0 0 0 0 1</matrix>
        <instance_geometry url="#Cube-mesh" name="Marker.031"/>
      </node>
      <node id="Marker_030" name="Marker.030" type="NODE">
        <matrix sid="transform">7.54979e-8 -8.74228e-8 1 -48.28675 0 -1 -8.74228e-8 12.08512 1 6.60024e-15 -7.54979e-8 0 0 0 0 1</matrix>
        <instance_geometry url="#Cube-mesh" name="Marker.030"/>
      </node>
      <node id="Marker_029" name="Marker.029" type="NODE">
        <matrix sid="transform">7.54979e-8 -8.74228e-8 1 10.91723 0 -1 -8.74228e-8 -15.64925 1 6.60024e-15 -7.54979e-8 0 0 0 0 1</matrix>
        <instance_geometry url="#Cube-mesh" name="Marker.029"/>
      </node>
      <node id="Marker_028" name="Marker.028" type="NODE">
        <matrix sid="transform">7.54979e-8 -8.74228e-8 1 45.24559 0 -1 -8.74228e-8 46.46011 1 6.60024e-15 -7.54979e-8 0 0 0 0 1</matrix>
        <instance_geometry url="#Cube-mesh" name="Marker.028"/>
      </node>
      <node id="Marker_027" name="Marker.027" type="NODE">
        <matrix sid="transform">7.54979e-8 -8.74228e-8 1 23.35505 0 -1 -8.74228e-8 26.14762 1 6.60024e-15 -7.54979e-8 0 0 0 0 1</matrix>
        <instance_geometry url="#Cube-mesh" name="Marker.027"/>
      </node>
      <node id="Marker_026" name="Marker.026" type="NODE">
        <matrix sid="transform">7.54979e-8 -8.74228e-8 1 39.27544 0 -1 -8.74228e-8 27.71012 1 6.60024e-15 -7.54979e-8 0 0 0 0 1</matrix>
        <instance_geometry url="#Cube-mesh" name="Marker.026"/>
      </node>
      <node id="Marker_025" name="Marker.025" type="NODE">
        <matrix sid="transform">7.54979e-8 -8.74228e-8 1 -13.46088 0 -1 -8.74228e-8 -32.05551 1 6.60024e-15 -7.54979e-8 0 0 0 0 1</matrix>
        <instance_geometry url="#Cube-mesh" name="Marker.025"/>
      </node>
      <node id="Marker_024" name="Marker.024" type="NODE">
        <matrix sid="transform">7.54979e-8 -8.74228e-8 1 -48.78426 0 -1 -8.74228e-8 37.08511 1 6.60024e-15 -7.54979e-8 0 0 0 0 1</matrix>
        <instance_geometry url="#Cube-mesh" name="Marker.024"/>
      </node>
      <node id="Marker_023" name="Marker.023" type="NODE">
        <matrix sid="transform">7.54979e-8 -8.74228e-8 1 3.952057 0 -1 -8.74228e-8 10.91324 1 6.60024e-15 -7.54979e-8 0 0 0 0 1</matrix>
        <instance_geometry url="#Cube-mesh" name="Marker.023"/>
      </node>
      <node id="Marker_022" name="Marker.022" type="NODE">
        <matrix sid="transform">7.54979e-8 -8.74228e-8 1 14.39981 0 -1 -8.74228e-8 -28.14926 1 6.60024e-15 -7.54979e-8 0 0 0 0 1</matrix>
        <instance_geometry url="#Cube-mesh" name="Marker.022"/>
      </node>
      <node id="Marker_021" name="Marker.021" type="NODE">
        <matrix sid="transform">7.54979e-8 -8.74228e-8 1 5.942108 0 -1 -8.74228e-8 23.41324 1 6.60024e-15 -7.54979e-8 0 0 0 0 1</matrix>
        <instance_geometry url="#Cube-mesh" name="Marker.021"/>
      </node>
      <node id="Marker_020" name="Marker.020" type="NODE">
        <matrix sid="transform">7.54979e-8 -8.74228e-8 1 21.8625 0 -1 -8.74228e-8 24.97574 1 6.60024e-15 -7.54979e-8 0 0 0 0 1</matrix>
        <instance_geometry url="#Cube-mesh" name="Marker.020"/>
      </node>
      <node id="Marker_019" name="Marker.019" type="NODE">
        <matrix sid="transform">7.54979e-8 -8.74228e-8 1 2.957031 0 -1 -8.74228e-8 -14.08676 1 6.60024e-15 -7.54979e-8 0 0 0 0 1</matrix>
        <instance_geometry url="#Cube-mesh" name="Marker.019"/>
      </node>
      <node id="Marker_018" name="Marker.018" type="NODE">
        <matrix sid="transform">7.54979e-8 -8.74228e-8 1 -1.520578 0 -1 -8.74228e-8 -29.71176 1 6.60024e-15 -7.54979e-8 0 0 0 0 1</matrix>
        <instance_geometry url="#Cube-mesh" name="Marker.018"/>
      </node>
      <node id="Marker_017" name="Marker.017" type="NODE">
        <matrix sid="transform">7.54979e-8 -8.74228e-8 1 1.962006 0 -1 -8.74228e-8 17.16324 1 6.60024e-15 -7.54979e-8 0 0 0 0 1</matrix>
        <instance_geometry url="#Cube-mesh" name="Marker.017"/>
      </node>
      <node id="Marker_016" name="Marker.016" type="NODE">
        <matrix sid="transform">7.54979e-8 -8.74228e-8 1 -8.485756 0 -1 -8.74228e-8 26.53824 1 6.60024e-15 -7.54979e-8 0 0 0 0 1</matrix>
        <instance_geometry url="#Cube-mesh" name="Marker.016"/>
      </node>
      <node id="Marker_015" name="Marker.015" type="NODE">
        <matrix sid="transform">7.54979e-8 -8.74228e-8 1 -36.84396 0 -1 -8.74228e-8 -17.99301 1 6.60024e-15 -7.54979e-8 0 0 0 0 1</matrix>
        <instance_geometry url="#Cube-mesh" name="Marker.015"/>
      </node>
      <node id="Marker_014" name="Marker.014" type="NODE">
        <matrix sid="transform">7.54979e-8 -8.74228e-8 1 37.28539 0 -1 -8.74228e-8 48.02261 1 6.60024e-15 -7.54979e-8 0 0 0 0 1</matrix>
        <instance_geometry url="#Cube-mesh" name="Marker.014"/>
      </node>
      <node id="Marker_013" name="Marker.013" type="NODE">
        <matrix sid="transform">7.54979e-8 -8.74228e-8 1 6.439617 0 -1 -8.74228e-8 -26.58676 1 6.60024e-15 -7.54979e-8 0 0 0 0 1</matrix>
        <instance_geometry url="#Cube-mesh" name="Marker.013"/>
      </node>
      <node id="Marker_012" name="Marker.012" type="NODE">
        <matrix sid="transform">7.54979e-8 -8.74228e-8 1 19.87246 0 -1 -8.74228e-8 12.47574 1 6.60024e-15 -7.54979e-8 0 0 0 0 1</matrix>
        <instance_geometry url="#Cube-mesh" name="Marker.012"/>
      </node>
      <node id="Marker_011" name="Marker.011" type="NODE">
        <matrix sid="transform">7.54979e-8 -8.74228e-8 1 -34.3564 0 -1 -8.74228e-8 44.50699 1 6.60024e-15 -7.54979e-8 0 0 0 0 1</matrix>
        <instance_geometry url="#Cube-mesh" name="Marker.011"/>
      </node>
      <node id="Marker_010" name="Marker.010" type="NODE">
        <matrix sid="transform">7.54979e-8 -8.74228e-8 1 49.72321 0 -1 -8.74228e-8 18.33512 1 6.60024e-15 -7.54979e-8 0 0 0 0 1</matrix>
        <instance_geometry url="#Cube-mesh" name="Marker.010"/>
      </node>
      <node id="Marker_009" name="Marker.009" type="NODE">
        <matrix sid="transform">7.54979e-8 -8.74228e-8 1 -40.32655 0 -1 -8.74228e-8 25.75699 1 6.60024e-15 -7.54979e-8 0 0 0 0 1</matrix>
        <instance_geometry url="#Cube-mesh" name="Marker.009"/>
      </node>
      <node id="Marker_008" name="Marker.008" type="NODE">
        <matrix sid="transform">7.54979e-8 -8.74228e-8 1 -38.3365 0 -1 -8.74228e-8 38.257 1 6.60024e-15 -7.54979e-8 0 0 0 0 1</matrix>
        <instance_geometry url="#Cube-mesh" name="Marker.008"/>
      </node>
      <node id="Marker_007" name="Marker.007" type="NODE">
        <matrix sid="transform">7.54979e-8 -8.74228e-8 1 16.38987 0 -1 -8.74228e-8 -43.77426 1 6.60024e-15 -7.54979e-8 0 0 0 0 1</matrix>
        <instance_geometry url="#Cube-mesh" name="Marker.007"/>
      </node>
      <node id="Marker_006" name="Marker.006" type="NODE">
        <matrix sid="transform">7.54979e-8 -8.74228e-8 1 15.39484 0 -1 -8.74228e-8 31.22574 1 6.60024e-15 -7.54979e-8 0 0 0 0 1</matrix>
        <instance_geometry url="#Cube-mesh" name="Marker.006"/>
      </node>
      <node id="Marker_005" name="Marker.005" type="NODE">
        <matrix sid="transform">7.54979e-8 -8.74228e-8 1 19.37494 0 -1 -8.74228e-8 37.47574 1 6.60024e-15 -7.54979e-8 0 0 0 0 1</matrix>
        <instance_geometry url="#Cube-mesh" name="Marker.005"/>
      </node>
      <node id="Marker_004" name="Marker.004" type="NODE">
        <matrix sid="transform">7.54979e-8 -8.74228e-8 1 40.27047 0 -1 -8.74228e-8 -47.28988 1 6.60024e-15 -7.54979e-8 0 0 0 0 1</matrix>
        <instance_geometry url="#Cube-mesh" name="Marker.004"/>
      </node>
      <node id="Marker_003" name="Marker.003" type="NODE">
        <matrix sid="transform">7.54979e-8 -8.74228e-8 1 -9.978294 0 -1 -8.74228e-8 24.19449 1 6.60024e-15 -7.54979e-8 0 0 0 0 1</matrix>
        <instance_geometry url="#Cube-mesh" name="Marker.003"/>
      </node>
      <node id="Marker_002" name="Marker.002" type="NODE">
        <matrix sid="transform">7.54979e-8 -8.74228e-8 1 20.86748 0 -1 -8.74228e-8 -0.02425718 1 6.60024e-15 -7.54979e-8 0 0 0 0 1</matrix>
        <instance_geometry url="#Cube-mesh" name="Marker.002"/>
      </node>
      <node id="Marker_001" name="Marker.001" type="NODE">
        <matrix sid="transform">7.54979e-8 -8.74228e-8 1 44.25056 0 -1 -8.74228e-8 -41.03988 1 6.60024e-15 -7.54979e-8 0 0 0 0 1</matrix>
        <instance_geometry url="#Cube-mesh" name="Marker.001"/>
      </node>
      <node id="Plane" name="Plane" type="NODE">
        <matrix sid="transform">1 0 0 0 0 1 0 0 0 0 1 0 0 0 0 1</matrix>
        <instance_geometry url="#Plane-mesh" name="Plane">
          <bind_material>
            <technique_common>
              <instance_material symbol="Material_001-material" target="#Material_001-material">
                <bind_vertex_input semantic="UVMap" input_semantic="TEXCOORD" input_set="0"/>
              </instance_material>
            </technique_common>
          </bind_material>
        </instance_geometry>
      </node>
    </visual_scene>
  </library_visual_scenes>
  <scene>
    <instance_visual_scene url="#Scene"/>
  </scene>
</COLLADA>