[gd_scene load_steps=4 format=3 uid="uid://3bqlxosje051"]

[sub_resource type="StandardMaterial3D" id="StandardMaterial3D_mhjp5"]
resource_name = "Material.001"
albedo_color = Color(0.0971973, 0.0299169, 0.0248183, 1)
metallic = 0.18
roughness = 0.82

[sub_resource type="ArrayMesh" id="ArrayMesh_sg722"]
_surfaces = [{
"aabb": AABB(-50, 0, -50, 100, 1e-05, 100),
"format": 4097,
"index_count": 6,
"index_data": PackedByteArray(0, 0, 2, 0, 1, 0, 0, 0, 1, 0, 3, 0),
"name": "Material.001",
"primitive": 3,
"vertex_count": 4,
"vertex_data": PackedByteArray(0, 0, 72, 66, 0, 0, 0, 0, 0, 0, 72, 66, 0, 0, 72, 194, 0, 0, 0, 0, 0, 0, 72, 194, 0, 0, 72, 194, 0, 0, 0, 0, 0, 0, 72, 66, 0, 0, 72, 66, 0, 0, 0, 0, 0, 0, 72, 194)
}]
blend_shape_mode = 0

[sub_resource type="ArrayMesh" id="ArrayMesh_3sot5"]
resource_name = "Plane"
_surfaces = [{
"aabb": AABB(-50, 0, -50, 100, 1e-05, 100),
"attribute_data": PackedByteArray(0, 0, 128, 63, 0, 0, 128, 63, 0, 0, 0, 0, 0, 0, 0, 0, 0, 0, 0, 0, 0, 0, 128, 63, 0, 0, 128, 63, 0, 0, 0, 0),
"format": 4119,
"index_count": 6,
"index_data": PackedByteArray(0, 0, 2, 0, 1, 0, 0, 0, 1, 0, 3, 0),
"material": SubResource("StandardMaterial3D_mhjp5"),
"name": "Material.001",
"primitive": 3,
"vertex_count": 4,
"vertex_data": PackedByteArray(0, 0, 72, 66, 0, 0, 0, 0, 0, 0, 72, 66, 255, 127, 255, 255, 255, 255, 255, 191, 0, 0, 72, 194, 0, 0, 0, 0, 0, 0, 72, 194, 255, 127, 255, 255, 255, 255, 255, 191, 0, 0, 72, 194, 0, 0, 0, 0, 0, 0, 72, 66, 255, 127, 255, 255, 255, 255, 255, 191, 0, 0, 72, 66, 0, 0, 0, 0, 0, 0, 72, 194, 255, 127, 255, 255, 255, 255, 255, 191)
}]
blend_shape_mode = 0
shadow_mesh = SubResource("ArrayMesh_sg722")

[node name="tree_sources" type="Node3D"]

[node name="Plane" type="MeshInstance3D" parent="."]
mesh = SubResource("ArrayMesh_3sot5")
skeleton = NodePath("")
