[gd_scene load_steps=3 format=3 uid="uid://bigsqjij3o5xs"]

[ext_resource type="Script" path="res://trees/tree_mgr.gd" id="1_qp3o2"]
[ext_resource type="Texture2D" uid="uid://dfml6yu4eetpg" path="res://map/chunkmap.png" id="2_j0djt"]

[node name="TreeMgr" type="Node3D"]
script = ExtResource("1_qp3o2")
_chunkmap = ExtResource("2_j0djt")

[node name="Control" type="Control" parent="."]
layout_mode = 3
anchors_preset = 15
anchor_right = 1.0
anchor_bottom = 1.0
grow_horizontal = 2
grow_vertical = 2

[node name="Panel" type="Panel" parent="Control"]
layout_mode = 1
anchors_preset = 3
anchor_left = 1.0
anchor_top = 1.0
anchor_right = 1.0
anchor_bottom = 1.0
offset_left = -176.0
offset_top = -64.0
offset_right = -8.0
offset_bottom = -8.0
grow_horizontal = 0
grow_vertical = 0

[node name="Label" type="Label" parent="Control/Panel"]
layout_mode = 1
anchors_preset = 15
anchor_right = 1.0
anchor_bottom = 1.0
grow_horizontal = 2
grow_vertical = 2
text = "(1024, 512)"
horizontal_alignment = 1
vertical_alignment = 1
