[gd_scene load_steps=4 format=3 uid="uid://cxi8tihrvtcj4"]

[ext_resource type="Texture2D" uid="uid://chcv6pakvy0wo" path="res://map/p2_map.png" id="1_6tijw"]
[ext_resource type="Script" path="res://select_menu/globmap.gd" id="1_mjx2g"]
[ext_resource type="Texture2D" uid="uid://bt2ptw2xj76o5" path="res://select_menu/cursor.png" id="2_r31fi"]

[node name="Globmap" type="Control"]
layout_mode = 3
anchors_preset = 8
anchor_left = 0.5
anchor_top = 0.5
anchor_right = 0.5
anchor_bottom = 0.5
offset_left = -640.0
offset_top = -400.0
offset_right = -640.0
offset_bottom = -400.0
grow_horizontal = 2
grow_vertical = 2
script = ExtResource("1_mjx2g")

[node name="TextureRect" type="TextureRect" parent="."]
clip_contents = true
layout_mode = 1
anchors_preset = 8
anchor_left = 0.5
anchor_top = 0.5
anchor_right = 0.5
anchor_bottom = 0.5
offset_left = -413.0
offset_top = -440.0
offset_right = 413.0
offset_bottom = 438.0
grow_horizontal = 2
grow_vertical = 2
texture = ExtResource("1_6tijw")
expand_mode = 1
stretch_mode = 6

[node name="Player" type="TextureRect" parent="."]
layout_mode = 1
anchors_preset = 8
anchor_left = 0.5
anchor_top = 0.5
anchor_right = 0.5
anchor_bottom = 0.5
offset_left = -7.0
offset_top = -8.0
offset_right = 7.0
offset_bottom = 6.0
grow_horizontal = 2
grow_vertical = 2
pivot_offset = Vector2(7, 8)
texture = ExtResource("2_r31fi")
expand_mode = 1
stretch_mode = 5
