[gd_scene load_steps=2 format=3 uid="uid://dpnd78spillwe"]

[ext_resource type="Script" path="res://camera/camera.gd" id="1_nigyj"]

[node name="Camera" type="Node3D"]
script = ExtResource("1_nigyj")

[node name="Marker3D" type="Marker3D" parent="."]

[node name="Base" type="Node3D" parent="."]

[node name="Head" type="Node3D" parent="Base"]

[node name="RayCast3D" type="RayCast3D" parent="Base/Head"]
transform = Transform3D(-4.37114e-08, -1, 0, 1, -4.37114e-08, 0, 0, 0, 1, 0, 0, 0)
target_position = Vector3(0, -2, 0)

[node name="Offset" type="Node3D" parent="Base/Head"]
transform = Transform3D(1, 0, 0, 0, 1, 0, 0, 0, 1, 0.469598, 0, 0)

[node name="ClipCamRaycast" type="RayCast3D" parent="Base/Head/Offset"]
transform = Transform3D(1, 0, 0, 0, -4.37114e-08, 1, 0, -1, -4.37114e-08, 0, 0, 0)
target_position = Vector3(0, -10, 0)
debug_shape_custom_color = Color(0.466667, 0.27451, 0.282353, 1)
debug_shape_thickness = 1

[node name="Camera3D" type="Camera3D" parent="Base/Head/Offset"]
transform = Transform3D(1, 0, 0, 0, 1, 0, 0, 0, 1, -0.008421, 0, 5)
fov = 80.0

[node name="PointerRaycast" type="RayCast3D" parent="Base/Head/Offset/Camera3D"]
transform = Transform3D(-1, 8.74228e-08, 3.82137e-15, 0, -4.37114e-08, 1, 8.74228e-08, 1, 4.37114e-08, 0, 0, 0)
target_position = Vector3(0, -3.34, 0)
